<svg width="67" height="91" viewBox="0 0 67 91" fill="none" xmlns="http://www.w3.org/2000/svg">
<path fill-rule="evenodd" clip-rule="evenodd" d="M38.9649 0.333008V24.3955C38.9649 26.7304 40.8109 28.6418 43.0683 28.6418H66.3212V47.9125C64.1426 47.3173 61.8491 46.9997 59.4821 46.9997C54.2059 46.9997 49.297 48.5773 45.1975 51.2889H19.1315C18.0028 51.2889 17.0798 52.2446 17.0798 53.412V54.8275C17.0798 55.995 18.0028 56.9507 19.1315 56.9507H39.0584C37.7039 58.6757 36.5605 60.5764 35.6709 62.6124H19.1315C18.0028 62.6124 17.0798 63.5681 17.0798 64.7356V66.151C17.0798 67.3185 18.0028 68.2742 19.1315 68.2742H33.9331C33.6445 69.8317 33.4936 71.4375 33.4936 73.0781C33.4936 79.9797 36.1665 86.2567 40.529 90.9212H4.76946C2.496 90.9212 0.666016 89.0286 0.666016 86.6749V4.57933C0.666016 2.22562 2.496 0.333008 4.76946 0.333008H38.9649ZM49.9074 43.504V42.0885C49.9074 41.4974 49.671 40.9599 49.2903 40.5739C48.9189 40.1986 48.4127 39.9654 47.8557 39.9654H19.1315C18.0028 39.9654 17.0798 40.921 17.0798 42.0885V43.504C17.0798 44.6714 18.0028 45.6271 19.1315 45.6271H47.8557C48.9844 45.6271 49.9074 44.6714 49.9074 43.504Z" fill="#333333"/>
<path d="M66.3212 22.9801V21.9011C66.3212 20.7859 65.8938 19.7069 65.1244 18.9107L48.386 1.57152C47.6166 0.775333 46.5733 0.333008 45.4794 0.333008H44.4361V22.9801H66.3212Z" fill="#333333"/>
</svg>
